Trabalho Final
…
Abaixo, a matriz \(\beta\) completa, com as palavras associadas com suas probabilidades em cada um dos 10 tópicos.

ddlda

A LDA_VEM topic model with 10 topics.

# extract topics
ddlda_topics <- tidy(ddlda, matrix = "beta")
print(ddlda_topics)

# A tibble: 52,180 × 3
   topic term         beta
   <int> <chr>       <dbl>
 1     1 exposiçã 6.84e-27
 2     2 exposiçã 1.10e- 2
 3     3 exposiçã 2.69e-33
 4     4 exposiçã 1.85e-45
 5     5 exposiçã 2.77e-43
 6     6 exposiçã 5.55e-34
 7     7 exposiçã 1.79e- 6
 8     8 exposiçã 8.43e-31
 9     9 exposiçã 3.04e-52
10    10 exposiçã 4.08e-16
# ℹ 52,170 more rows
…
